…
data_pre %>% count(duplicated(data_pre$track_name))
```

    ## # A tibble: 2 x 2
    ##   `duplicated(data_pre$track_name)`     n
    ##   <lgl>                             <int>
    ## 1 FALSE                             23101
    ## 2 TRUE                               4846

``` r
data_pre %>% distinct(track_name, .keep_all = TRUE, )
```

    ## # A tibble: 23,101 x 23
    ##    track_id    track_name          track_artist track_popularity track_album_id 
    ##    <chr>       <chr>               <chr>                   <dbl> <chr>          
    ##  1 6f807x0ima~ "I Don't Care (wit~ Ed Sheeran                 66 2oCs0DGTsRO98G~
    ##  2 0r7CVbZTWZ~ "Memories - Dillon~ Maroon 5                   67 63rPSO264uRjW1~
    ##  3 1z1Hg7Vb0A~ "All the Time - Do~ Zara Larsson               70 1HoSmj2eLcsrR0~
    ##  4 75FpbthrwQ~ "Call You Mine - K~ The Chainsm~               60 1nqYsOef1yKKuG~
    ##  5 1e8PAfcKUY~ "Someone You Loved~ Lewis Capal~               69 7m7vv9wlQ4i0LF~
    ##  6 7fvUMiyapM~ "Beautiful People ~ Ed Sheeran                 67 2yiy9cd2QktrNv~
    ##  7 2OAylPUDDf~ "Never Really Over~ Katy Perry                 62 7INHYSeusaFlyr~
    ##  8 6b1RNvAcJj~ "Post Malone (feat~ Sam Feldt                  69 6703SRPsLkS4bP~
    ##  9 7bF6tCO3gF~ "Tough Love - Ti\x~ Avicii                     68 7CvAfGvq4RlIwE~
    ## 10 1IXGILkPm0~ "If I Can't Have Y~ Shawn Mendes               67 4QxzbfSsVryEQw~
    ## # ... with 23,091 more rows, and 18 more variables: track_album_name <chr>,
    ## #   track_album_release_date <chr>, playlist_name <chr>, playlist_id <chr>,
    ## #   playlist_genre <chr>, playlist_subgenre <chr>, danceability <dbl>,
    ## #   energy <dbl>, key <dbl>, loudness <dbl>, mode <dbl>, speechiness <dbl>,
    ## #   acousticness <dbl>, instrumentalness <dbl>, liveness <dbl>, valence <dbl>,
    ## #   tempo <dbl>, duration_ms <dbl>
…
