…
``` r
attach(Primer_Tiempo2020)
```

\#\# Borrar Datos Char

``` r
Primer_Tiempo2020 <- Primer_Tiempo2020[,!(colnames(Primer_Tiempo2020) %in% c("id_partido", "fasepartido", "local", "tiempo","formationUsed", "torneo"))]
Primer_Tiempo2020
```

    ## # A tibble: 130 x 43
    ##    equipo    partido      accuratePass wonTackle lostCorners goalsConceded saves
    ##    <chr>     <chr>               <dbl>     <dbl>       <dbl>         <dbl> <dbl>
    ##  1 Uni<f3>n~ Universidad~          235         2           3             1     4
    ##  2 Universi~ Universidad~          199         2           0             0     1
    ##  3 Everton   Universidad~          157         7           6             0     3
    ##  4 Universi~ Universidad~          192         4           1             0     2
    ##  5 Curic<f3~ Universidad~          142         6           3             2     2
    ##  6 Universi~ Universidad~          168         8           1             1     2
    ##  7 Coquimbo~ Universidad~          190         3           0             0     2
    ##  8 Universi~ Universidad~          200         5           0             0     0
    ##  9 Santiago~ Universidad~          156         4           3             0     0
    ## 10 Universi~ Universidad~           92         4           1             1     1
    ## # ... with 120 more rows, and 36 more variables: ontargetScoringAtt <dbl>,
    ## #   totalScoringAtt <dbl>, subsMade <dbl>, totalThrows <dbl>,
    ## #   totalYellowCard <dbl>, goalKicks <dbl>, totalPass <dbl>, fkFoulWon <dbl>,
    ## #   totalTackle <dbl>, fkFoulLost <dbl>, possessionPercentage <dbl>,
    ## #   totalClearance <dbl>, blockedScoringAtt <dbl>, goalAssist <dbl>,
    ## #   goals <dbl>, totalOffside <dbl>, shotOffTarget <dbl>, wonCorners <dbl>,
    ## #   cornerTaken <dbl>, penaltyConceded <dbl>, penaltyFaced <dbl>,
    ## #   penGoalsConceded <dbl>, penaltyWon <dbl>, ownGoals <dbl>,
    ## #   penaltySave <dbl>, secondYellow <dbl>, totalRedCard <dbl>,
    ## #   posesion_Rival <dbl>, precision_pases <dbl>, precision_tiros <dbl>,
    ## #   minutos_juego <dbl>, minutos_juegorival <dbl>, golesSalvados <dbl>,
    ## #   foulsInofensivos <dbl>, cortarJuegoContrario <dbl>, juegoCortado <dbl>

## Analisis descriptivo

``` r
fh2020 <- Primer_Tiempo2020[order(Primer_Tiempo2020$accuratePass, decreasing = TRUE),]
fh2020
```

    ## # A tibble: 130 x 43
    ##    equipo    partido      accuratePass wonTackle lostCorners goalsConceded saves
    ##    <chr>     <chr>               <dbl>     <dbl>       <dbl>         <dbl> <dbl>
    ##  1 Universi~ Universidad~          269         2           3             0     2
    ##  2 Deportiv~ Deportivo A~          253        11           1             1     1
    ##  3 Uni<f3>n~ Uni<f3>n La~          252         6           3             1     3
    ##  4 Curic<f3~ Universidad~          245         5           2             0     2
    ##  5 Uni<f3>n~ Uni<f3>n La~          237         5           2             0     0
    ##  6 Uni<f3>n~ Universidad~          235         2           3             1     4
    ##  7 Colo Colo Colo Colo v~          231         4           0             0     0
    ##  8 Uni<f3>n~ Uni<f3>n Es~          224         7           0             1     0
    ##  9 Audax It~ Audax Itali~          220         2           1             1     1
    ## 10 Audax It~ Audax Itali~          219         6           1             0     0
    ## # ... with 120 more rows, and 36 more variables: ontargetScoringAtt <dbl>,
    ## #   totalScoringAtt <dbl>, subsMade <dbl>, totalThrows <dbl>,
    ## #   totalYellowCard <dbl>, goalKicks <dbl>, totalPass <dbl>, fkFoulWon <dbl>,
    ## #   totalTackle <dbl>, fkFoulLost <dbl>, possessionPercentage <dbl>,
    ## #   totalClearance <dbl>, blockedScoringAtt <dbl>, goalAssist <dbl>,
    ## #   goals <dbl>, totalOffside <dbl>, shotOffTarget <dbl>, wonCorners <dbl>,
    ## #   cornerTaken <dbl>, penaltyConceded <dbl>, penaltyFaced <dbl>,
    ## #   penGoalsConceded <dbl>, penaltyWon <dbl>, ownGoals <dbl>,
    ## #   penaltySave <dbl>, secondYellow <dbl>, totalRedCard <dbl>,
    ## #   posesion_Rival <dbl>, precision_pases <dbl>, precision_tiros <dbl>,
    ## #   minutos_juego <dbl>, minutos_juegorival <dbl>, golesSalvados <dbl>,
    ## #   foulsInofensivos <dbl>, cortarJuegoContrario <dbl>, juegoCortado <dbl>

## Sub DataFrames

``` r
fh2020_pases = fh2020[,colnames(Primer_Tiempo2020) %in% c("equipo", "partido", "accuratePass", "totalPass", "precision_pases")]
fh2020_pases = fh2020_pases[order(fh2020_pases$precision_pases, decreasing = TRUE),]

fh2020_pases
```

    ## # A tibble: 130 x 5
    ##    equipo        partido                  accuratePass totalPass precision_pases
    ##    <chr>         <chr>                           <dbl>     <dbl>           <dbl>
    ##  1 Audax Italia~ Audax Italiano vs Cobre~          220       246            89.4
    ##  2 Universidad ~ Universidad Cat<f3>lica~          269       304            88.5
    ##  3 Uni<f3>n La ~ Uni<f3>n La Calera vs L~          252       285            88.4
    ##  4 Deportivo An~ Deportivo Antofagasta v~          253       289            87.5
    ##  5 Uni<f3>n La ~ Universidad de Chile vs~          235       271            86.7
    ##  6 Universidad ~ Huachipato vs Universid~          202       233            86.7
    ##  7 Colo Colo     Colo Colo vs Universida~          231       267            86.5
    ##  8 Deportivo An~ Deportivo Antofagasta v~          162       188            86.2
    ##  9 Universidad ~ Deportivo Antofagasta v~          202       235            86.0
    ## 10 Uni<f3>n La ~ Uni<f3>n La Calera vs U~          176       205            85.9
    ## # ... with 120 more rows
…
